{
    "name": "CartItem",
    "fields": [
        {
            "fieldName": "cartId",
            "fieldType": "String"
        },
        {
            "fieldName": "productId",
            "fieldType": "String"
        },
        {
            "fieldName": "color",
            "fieldType": "String"
        },
        {
            "fieldName": "size",
            "fieldType": "String"
        },
        {
            "fieldName": "qty",
            "fieldType": "Integer"
        },
        {
            "fieldName": "price",
            "fieldType": "BigDecimal"
        },
        {
            "fieldName": "createdAt",
            "fieldType": "ZonedDateTime"
        },
        {
            "fieldName": "updatedAt",
            "fieldType": "ZonedDateTime"
        }
    ],
    "relationships": [],
    "changelogDate": "20200416125100",
    "entityTableName": "cart_item",
    "dto": "no",
    "pagination": "no",
    "service": "serviceImpl",
    "jpaMetamodelFiltering": false,
    "fluentMethods": true,
    "readOnly": false,
    "embedded": false,
    "clientRootFolder": "",
    "applications": "*"
}