{
    "name": "Coin",
    "fields": [
        {
            "fieldName": "userId",
            "fieldType": "String"
        },
        {
            "fieldName": "change",
            "fieldType": "String"
        },
        {
            "fieldName": "amount",
            "fieldType": "BigDecimal"
        },
        {
            "fieldName": "status",
            "fieldType": "String"
        },
        {
            "fieldName": "createdAt",
            "fieldType": "ZonedDateTime"
        },
        {
            "fieldName": "updatedAt",
            "fieldType": "ZonedDateTime"
        }
    ],
    "relationships": [],
    "changelogDate": "20200502135300",
    "entityTableName": "coin",
    "dto": "no",
    "pagination": "no",
    "service": "serviceImpl",
    "jpaMetamodelFiltering": false,
    "fluentMethods": true,
    "readOnly": false,
    "embedded": false,
    "clientRootFolder": "",
    "applications": "*"
}