{
    "name": "Company",
    "fields": [
        {
            "fieldName": "name",
            "fieldType": "String"
        },
        {
            "fieldName": "address",
            "fieldType": "String"
        },
        {
            "fieldName": "phone",
            "fieldType": "String"
        },
        {
            "fieldName": "email",
            "fieldType": "String"
        },
        {
            "fieldName": "website",
            "fieldType": "String"
        },
        {
            "fieldName": "createdAt",
            "fieldType": "ZonedDateTime"
        },
        {
            "fieldName": "updatedAt",
            "fieldType": "ZonedDateTime"
        }
    ],
    "relationships": [],
    "changelogDate": "20200422131700",
    "entityTableName": "company",
    "dto": "no",
    "pagination": "no",
    "service": "serviceImpl",
    "jpaMetamodelFiltering": false,
    "fluentMethods": true,
    "readOnly": false,
    "embedded": false,
    "clientRootFolder": "",
    "applications": "*"
}