{
    "name": "Order",
    "fields": [
        {
            "fieldName": "cartId",
            "fieldType": "String"
        },
        {
            "fieldName": "status",
            "fieldType": "String"
        },
        {
            "fieldName": "paymentMethodId",
            "fieldType": "String"
        },
        {
            "fieldName": "companyId",
            "fieldType": "String"
        },
        {
            "fieldName": "total",
            "fieldType": "BigDecimal"
        },
        {
            "fieldName": "createdAt",
            "fieldType": "ZonedDateTime"
        },
        {
            "fieldName": "updatedAt",
            "fieldType": "ZonedDateTime"
        }
    ],
    "relationships": [],
    "changelogDate": "20200416123900",
    "entityTableName": "order",
    "dto": "no",
    "pagination": "no",
    "service": "serviceImpl",
    "jpaMetamodelFiltering": false,
    "fluentMethods": true,
    "readOnly": false,
    "embedded": false,
    "clientRootFolder": "",
    "applications": "*"
}